Comparing Two Treatments
…
N <- 100              # N experimental units
N_A <- N / 2          # 
N_B <- N - N_A

# Pick N experimental units

X <- tibble(x_i = 1:N)

X_A <- X %>%
    sample_n(N_A) %>% 
    mutate(x_A = TRUE)
X_A

# A tibble: 50 × 2
     x_i x_A  
   <int> <lgl>
 1    83 TRUE 
 2    85 TRUE 
 3    61 TRUE 
 4    29 TRUE 
 5    75 TRUE 
 6    10 TRUE 
 7    40 TRUE 
 8    41 TRUE 
 9    19 TRUE 
10    35 TRUE 
# ℹ 40 more rows

Code

X_B <- X %>% 
    anti_join(X_A, by = "x_i") %>% 
    mutate(x_B = if_else(X_A$x_A, TRUE, FALSE))
X_B

# A tibble: 50 × 2
     x_i x_B  
   <int> <lgl>
 1     1 TRUE 
 2     3 TRUE 
 3     4 TRUE 
 4     6 TRUE 
 5     7 TRUE 
 6     8 TRUE 
 7    11 TRUE 
 8    14 TRUE 
 9    16 TRUE 
10    17 TRUE 
# ℹ 40 more rows

Code

X_i <- X %>% 
    mutate(x_1 = rnorm(100, mean = 10, sd = 5)) %>% 
    mutate(x_2 = rnorm(100, mean = 5, sd = 2)) %>% 
    left_join(X_A, by = "x_i") %>% 
    mutate(x_A = coalesce(x_A, FALSE)) %>% 
    left_join(X_B, by = "x_i") %>% 
    mutate(x_B = coalesce(x_B, FALSE)) %>% 
    mutate(Treatment = if_else(x_A, "A", "B"))
X_i

# A tibble: 100 × 6
     x_i   x_1   x_2 x_A   x_B   Treatment
   <int> <dbl> <dbl> <lgl> <lgl> <chr>    
 1     1 12.7   7.92 FALSE TRUE  B        
 2     2  1.55  3.54 TRUE  FALSE A        
 3     3 14.7   6.86 FALSE TRUE  B        
 4     4 10.3   4.91 FALSE TRUE  B        
 5     5  6.56  5.69 TRUE  FALSE A        
 6     6  5.50  4.59 FALSE TRUE  B        
 7     7 11.5   7.71 FALSE TRUE  B        
 8     8 23.4   6.60 FALSE TRUE  B        
 9     9  6.16  4.46 TRUE  FALSE A        
10    10 11.9   4.40 TRUE  FALSE A        
# ℹ 90 more rows
…
