Design and Analysis of Experiments and Observational Studies using R – A textbook workbook
…
df_output <- as_tibble(test_power_ztest_mc$output)
df_output_grouped <- df_output %>% group_by(params)
df_output_grouped %>% 
  select(power) %>% 
  summarize(
  n = n(), mean=mean(power), median(power), min(power), max(power)
)

Adding missing grouping variables: `params`

# A tibble: 176 × 6
   params              n   mean `median(power)` `min(power)` `max(power)`
   <chr>           <int>  <dbl>           <dbl>        <dbl>        <dbl>
 1 mu1=0, n=193       25 0.0500          0.0500       0.0500       0.0500
 2 mu1=0, n=198268    25 0.0500          0.0500       0.0500       0.0500
 3 mu1=0, n=2047      25 0.0500          0.0500       0.0500       0.0500
 4 mu1=0, n=20896     25 0.0500          0.0500       0.0500       0.0500
 5 mu1=0, n=30        25 0.0500          0.0500       0.0500       0.0500
 6 mu1=0, n=37        25 0.0500          0.0500       0.0500       0.0500
 7 mu1=0, n=598771    25 0.0500          0.0500       0.0500       0.0500
 8 mu1=0, n=623       25 0.0500          0.0500       0.0500       0.0500
 9 mu1=0, n=64854     25 0.0500          0.0500       0.0500       0.0500
10 mu1=0, n=6609      25 0.0500          0.0500       0.0500       0.0500
# ℹ 166 more rows
